382 382 0 999 1 1 1 999 999 999 17.1552296686 0 1 0 1 999 999 999 999 0.0 0.0 999 999 1 0 0 2 1 999 999 999 999 999 999 0 999 999 999 999 999 999 999 999 999 999 999 999 999 999 999 999 999 999 -4294951.043 
382 382 1 999 3 2 2 157.900550764 0 0 28.0342188079 1 1 0 2 0.629337037936 0.890016974353 2.86555701437 -5.56058163677 0.0 0.0 999 999 0 0 0 0 1 999 999 999 999 999 999 0 999 999 999 999 999 999 999 999 999 999 999 999 999 999 999 999 999 999 -4294944.736 
382 382 2 999 2 2 2 157.900550764 0 0 61.9657811921 1 0 1 3 0.61426453118 0.868701230879 -11.9714786633 9.73772537212 0.0 0.0 999 999 0 0 0 0 1 999 999 999 999 999 999 0 999 999 999 999 999 999 999 999 999 999 999 999 999 999 999 999 999 999 -4294943.436 
382 382 3 999 2 3 2 145.860276142 0 0 17.0698619292 1 1 0 4 0.321582316219 0.454786073016 3.1830154663 -10.0711893456 0.0 0.0 999 999 0 0 0 1 2 17.1079049578 -29.7244460491 201.513101197 999 999 999 1 17.1079049578 -29.7244460491 201.513101197 1.0 14.9697425165 999 999 999 999 999 999 756.614861139 631.741275392 3270.77504523 756.614861139 631.741275392 3270.77504523 2 -4294940.669 
382 382 4 999 0 0 0 999 999 999 999.0 999 999 999 5 999 999 999 999 0.0 0.0 999 999 2 1 0 1 999 999 999 999 999 999 999 999 999 999 999 999 999 999 999 999 999 999 999 999 999 999 999 999 999 999 -4294939.768 
382 382 5 999 2 2 2 169.139723858 0 0 22.4146322606 1 1 0 6 0.416786897503 0.589425683068 9.75592327464 31.5117939211 0.0 0.0 999 999 0 1 2 6 3 -38.4850774881 17.7054110962 32.2282177921 999 999 999 2 -18.9768446237 39.1378824203 12.9242999204 2.0 44.8127113581 999 999 999 999 999 999 1847.60748313 1807.36508025 3738.21493346 2680.5978932 2797.15344847 7089.69600434 3 -4294930.851 
382 382 6 999 0 0 0 999 999 999 999.0 999 999 999 7 999 999 999 999 0.0 0.0 999 999 2 1 0 1 999 999 999 999 999 999 999 999 999 999 999 999 999 999 999 999 999 999 999 999 999 999 999 999 999 999 -4294921.581 
382 382 7 999 0 0 0 999 999 999 999.0 999 999 999 8 999 999 999 999 0.0 0.0 999 999 2 1 0 1 999 999 999 999 999 999 999 999 999 999 999 999 999 999 999 999 999 999 999 999 999 999 999 999 999 999 -4294909.211 
382 382 8 999 3 4 2 45.0 0 0 22.5 0 2 0 9 0.233769951515 0.330600635908 5.12403722029 2.44415040107 0.0 0.0 999 999 5 0 0 4 3 -32.260903269 -65.8175179718 113.273157734 999 999 999 1 -48.6178099983 -81.7072186071 116.618645596 3.0 15.807703359 999 999 999 999 999 999 116.130051635 176.074807091 59.6648942083 749.732951432 652.580417533 171.134420017 3 -4294899.137 
382 382 9 999 2 2 2 157.900550764 0 0 16.9657811921 1 1 0 10 0.279150688634 0.394778689812 -0.0224626163435 0.320906327802 0.0 0.0 999 999 0 0 0 0 2 -25.7999942142 89.1720801961 -10.346442906 999 999 999 1 -25.7999942142 89.1720801961 -10.346442906 1.0 39.4994125998 999 999 999 999 999 999 2038.42986901 30580.0118587 21590.0798919 2038.42986901 30580.0118587 21590.0798919 2 -4294875.967 
382 382 10 999 5 5 2 168.291146931 0 0 44.9383699605 1 1 0 11 0.637558818883 0.901644328476 -7.205567195 -12.4539212895 0.0 0.0 999 999 0 0 2 2 6 7.86554063886 -21.2764355299 -100.431029555 999 999 999 7 -32.4937375852 -85.2232417118 0.0746183434076 8.0 44.008362061 999 999 999 999 999 999 49416.1282466 38056.6997216 40344.4986833 64681.5308305 55754.5257673 219142.402275 5 -4294874.282 
382 382 11 999 0 0 0 999 999 999 999.0 999 999 999 12 999 999 999 999 0.0 0.0 999 999 4 2 0 0 999 999 999 999 999 999 999 999 999 999 999 999 999 999 999 999 999 999 999 999 999 999 999 999 999 999 -4294872.353 
382 382 12 999 3 3 3 180.0 180.0 168.291146931 47.013105551 1 2 0 13 0.645787526858 0.913281478894 0.239354492311 -0.208353033125 0.0 0.0 999 999 0 0 0 0 3 67.7888147899 -78.4592975694 146.326218725 999 999 999 3 194.163727485 -222.707793911 305.152361412 1.0 116.594707826 999 999 999 999 999 999 43886.5155267 35663.3608071 77450.4084911 7960.83574009 7629.04946065 10939.0498978 2 -4294821.939 
382 382 13 999 0 0 0 999 999 999 999.0 999 999 999 14 999 999 999 999 0.0 0.0 999 999 2 1 0 1 999 999 999 999 999 999 999 999 999 999 999 999 999 999 999 999 999 999 999 999 999 999 999 999 999 999 -4294792.392 
382 382 14 999 12 15 4 151.703915164 73.2749301098 45.0155694819 35.0346213657 1 3 0 15 0.101613801509 0.20832489878 0.934183213728 7.55481591938 0.0 0.0 999 999 0 0 0 0 12 45.0909612849 -2.98951987489 -45.2514255766 999 999 999 7 78.5535644674 20.5899782449 -24.6256311458 59.0 66.5200597987 999 999 999 999 999 999 34367.0727652 3962.45905113 5015.77485499 13917.0496969 4634.99115458 9723.44455263 12 -4294790.497 
382 382 15 999 3 3 2 163.633356614 0 0 19.8321841171 1 1 0 16 0.385472819254 0.545140888916 2.65315749392 -5.26916241905 0.0 0.0 999 999 0 0 0 0 3 25.8680299814 -103.924768719 -75.3258412874 999 999 999 3 46.327726979 -163.013876516 -109.025763748 1.0 71.1388499121 999 999 999 999 999 999 10335.017532 192706.306217 232568.931584 42974.1275514 199751.594001 20001.7105636 2 -4294779.132 
382 382 16 999 2 2 2 168.291146931 0 0 5.85442653454 1 1 0 17 0.640667014876 0.906039981403 -0.032673332041 0.211557594327 0.0 0.0 999 999 0 0 0 0 2 -1.20507101609 -132.987360475 -152.818238636 999 999 999 1 -1.20507101609 -132.987360475 -152.818238636 1.0 41.0334027219 999 999 999 999 999 999 1993.80060372 532384.157827 357235.462035 1993.80060372 532384.157827 357235.462035 2 -4294777.959 
382 382 17 999 1 1 1 999 999 999 39.083943426 0 1 0 18 999 999 999 999 0.0 0.0 999 999 0 0 0 0 1 999 999 999 999 999 999 0 999 999 999 999 999 999 999 999 999 999 999 999 999 999 999 999 999 999 -4294776.539 
382 382 18 999 2 2 2 180.0 0 0 50.916056574 1 1 0 19 0.400886418643 0.566939010216 999 999 0.0 0.0 999 999 0 0 0 1 2 103.276117407 -44.1448683742 -89.5963353166 999 999 999 1 103.276117407 -44.1448683742 -89.5963353166 1.0 71.1756802039 999 999 999 999 999 999 8981.17301539 7150.59612161 23850.3550408 8981.17301539 7150.59612161 23850.3550408 2 -4294774.962 
382 382 19 999 2 1 1 999 999 999 27.8447703314 0 1 0 20 999 999 999 999 0.0 0.0 999 999 0 0 0 0 1 999 999 999 999 999 999 0 999 999 999 999 999 999 999 999 999 999 999 999 999 999 999 999 999 999 -4294770.822 
