391 391 0 999 1 1 1 999 999 999 17.1552296686 1 0 0 1 999 999 999 999 0.0 0.0 999 999 0 0 0 1 1 999 999 999 999 999 999 0 999 999 999 999 999 999 999 999 999 999 999 999 999 999 999 999 999 999 -4294961.655 
391 391 1 999 0 0 0 999 999 999 999.0 999 999 999 2 999 999 999 999 0.0 0.0 999 999 0 0 0 0 999 999 999 999 999 999 999 999 999 999 999 999 999 999 999 999 999 999 999 999 999 999 999 999 999 999 -4294959.677 
391 391 2 999 0 0 0 999 999 999 999.0 999 999 999 3 999 999 999 999 0.0 0.0 999 999 0 4 2 0 999 999 999 999 999 999 999 999 999 999 999 999 999 999 999 999 999 999 999 999 999 999 999 999 999 999 -4294959.655 
391 391 3 999 2 2 2 157.051973836 0 0 39.3187834132 1 1 0 4 0.594623739405 0.840924956775 -0.0799416059748 0.00404785339729 0.0 0.0 999 999 0 0 0 0 1 999 999 999 999 999 999 0 999 999 999 999 999 999 999 999 999 999 999 999 999 999 999 999 999 999 -4294951.13 
391 391 4 999 0 0 0 999 999 999 999.0 999 999 999 5 999 999 999 999 0.0 0.0 999 999 0 0 1 1 999 999 999 999 999 999 999 999 999 999 999 999 999 999 999 999 999 999 999 999 999 999 999 999 999 999 -4294933.768 
391 391 5 999 2 2 2 180.0 0 0 62.1552296686 1 1 0 6 0.728275348506 1.029936875 999 999 0.0 0.0 999 999 9 15 0 0 2 16.5313031187 12.3559343956 48.388981796 999 999 999 1 16.5313031187 12.3559343956 48.388981796 1.0 40.8252079254 999 999 999 999 999 999 2567.91113107 1035.49912965 3005.18307364 2567.91113107 1035.49912965 3005.18307364 2 -4294918.261 
391 391 6 999 5 5 2 157.967852193 0 0 28.1911296012 1 1 0 7 0.612666359834 0.866441075287 -7.36452710262 -0.227152083632 0.0 0.0 999 999 0 0 0 0 5 -0.570412402456 -90.2759639434 -49.2558182642 999 999 999 4 -16.6897229998 -48.9123471904 -55.7036910953 7.0 22.3542495962 999 999 999 999 999 999 13163.5625317 54454.1509764 7713.52091893 22265.6860829 103379.776937 15305.7129195 5 -4294885.326 
391 391 7 999 2 4 2 146.708853069 0 0 22.4383699605 1 1 0 8 0.516781385742 0.730839244498 0.059600393717 0.0562903288139 0.0 0.0 999 999 0 0 0 0 2 82.0562547722 131.586958389 169.975747426 999 999 999 1 82.0562547722 131.586958389 169.975747426 1.0 25.8384032859 999 999 999 999 999 999 5076.27623118 26034.6126471 126534.542581 5076.27623118 26034.6126471 126534.542581 2 -4294885.295 
391 391 8 999 0 0 0 999 999 999 999.0 999 999 999 9 999 999 999 999 0.0 0.0 999 999 7 1 0 4 999 999 999 999 999 999 999 999 999 999 999 999 999 999 999 999 999 999 999 999 999 999 999 999 999 999 -4294881.87 
391 391 9 999 0 0 0 999 999 999 999.0 999 999 999 10 999 999 999 999 0.0 0.0 999 999 1 1 0 0 999 999 999 999 999 999 999 999 999 999 999 999 999 999 999 999 999 999 999 999 999 999 999 999 999 999 -4294878.804 
391 391 10 999 0 0 0 999 999 999 999.0 999 999 999 11 999 999 999 999 0.0 0.0 999 999 2 2 0 0 999 999 999 999 999 999 999 999 999 999 999 999 999 999 999 999 999 999 999 999 999 999 999 999 999 999 -4294878.133 
391 391 11 999 0 0 0 999 999 999 999.0 999 999 999 12 999 999 999 999 0.0 0.0 999 999 2 2 0 0 999 999 999 999 999 999 999 999 999 999 999 999 999 999 999 999 999 999 999 999 999 999 999 999 999 999 -4294862.073 
391 391 12 999 7 7 6 157.051973836 67.9480261637 45.0 39.5146250037 3 2 1 13 0.288274916641 0.636053098479 3.69105332295 -0.661040619081 0.0 0.0 999 999 0 0 1 0 6 16.9483949458 -24.6012695981 -160.71301926 999 999 999 6 36.7909453214 28.5286513448 -166.859706142 9.0 49.4311288603 999 999 999 999 999 999 408.665799142 700.712821729 2583.07947126 563.885631491 1441.39613874 7321.40207567 5 -4294849.577 
391 391 13 999 5 4 2 163.633356614 0 0 25.1678158829 1 1 0 14 0.32309074678 0.456919315973 -3.48498271538 -10.9604874811 0.0 0.0 999 999 0 0 0 0 4 -20.4824398794 -40.9816823631 -61.5157498813 999 999 999 1 -16.4172272816 -38.8546060557 -60.1295779114 6.0 10.3954462881 999 999 999 999 999 999 4211.99979773 18989.8537538 3170.34431771 4306.04459494 18302.4837096 2777.66680174 4 -4294848.721 
391 391 14 999 2 2 2 168.808302305 0 0 11.3886453424 1 1 0 15 0.211129292192 0.298581908432 999 999 0.0 0.0 999 999 0 0 0 0 2 -19.7403092699 -1.13889219255 -101.935508034 999 999 999 1 -19.7403092699 -1.13889219255 -101.935508034 1.0 38.8304692492 999 999 999 999 999 999 488.88663104 1459.25095314 764.777073146 488.88663104 1459.25095314 764.777073146 2 -4294831.5 
391 391 15 999 0 0 0 999 999 999 999.0 999 999 999 16 999 999 999 999 0.0 0.0 999 999 2 1 0 1 999 999 999 999 999 999 999 999 999 999 999 999 999 999 999 999 999 999 999 999 999 999 999 999 999 999 -4294828.843 
391 391 16 999 2 3 2 112.099449236 0 0 56.049724618 0 1 1 17 0.0879835391171 0.124427514285 0.0806096471431 0.116242734232 0.0 0.0 999 999 0 0 2 0 1 999 999 999 999 999 999 0 999 999 999 999 999 999 999 999 999 999 999 999 999 999 999 999 999 999 -4294825.399 
391 391 17 999 4 4 4 168.808302305 146.191697695 33.8083023052 22.6386453424 1 3 0 18 0.411013162862 0.818167810788 3.62784260622 7.82328241154 0.0 0.0 999 999 0 0 0 0 2 1.75663036482 10.7798132648 25.154642496 999 999 999 1 1.75663036482 10.7798132648 25.154642496 1.0 77.1133190303 999 999 999 999 999 999 1754.13593512 7029.77058016 3104.39537109 1754.13593512 7029.77058016 3104.39537109 2 -4294814.107 
391 391 18 999 3 2 2 146.239173095 0 0 34.0356431213 1 1 0 19 0.800618321911 1.13224528913 -0.108050060639 0.101634257747 0.0 0.0 999 999 0 0 0 0 1 999 999 999 999 999 999 0 999 999 999 999 999 999 999 999 999 999 999 999 999 999 999 999 999 999 -4294804.962 
391 391 19 999 1 1 1 999 999 999 5.79279649503 0 1 0 20 999 999 999 999 0.0 0.0 999 999 0 0 0 1 1 999 999 999 999 999 999 0 999 999 999 999 999 999 999 999 999 999 999 999 999 999 999 999 999 999 -4294804.526 
391 391 20 999 4 4 4 123.291146931 90.0 78.7608269054 39.4870065409 1 2 1 21 0.433290999796 0.866421037825 3.48950290042 6.3277606496 0.0 0.0 999 999 0 1 3 0 4 34.9422098393 -0.162109303288 39.700727236 999 999 999 3 23.2209019414 61.2767288902 75.1485453152 3.0 47.7478270094 999 999 999 999 999 999 544.725436629 2320.88676419 1100.60141625 623.671460849 1356.25686212 1420.07410624 3 -4294795.464 
391 391 21 999 2 2 2 180.0 0 0 50.916056574 1 1 0 22 0.860209750119 1.2165202951 999 999 0.0 0.0 999 999 0 0 0 0 1 999 999 999 999 999 999 0 999 999 999 999 999 999 999 999 999 999 999 999 999 999 999 999 999 999 -4294793.11 
391 391 22 999 2 1 1 999 999 999 5.91605657404 0 1 0 23 999 999 999 999 0.0 0.0 999 999 0 1 1 1 1 999 999 999 999 999 999 0 999 999 999 999 999 999 999 999 999 999 999 999 999 999 999 999 999 999 -4294771.972 
391 391 23 999 3 3 2 174.26719415 0 0 8.78245949906 1 1 0 24 0.325592935544 0.46045794526 -1.80272819787 17.5052477471 0.0 0.0 999 999 0 0 0 0 3 28.9117159484 -111.227047197 -135.571568052 999 999 999 2 19.0288790604 -148.437146951 -187.106908157 2.0 64.3188317828 999 999 999 999 999 999 51376.2266721 7417070.78482 6505492.32152 45470.9365678 3507372.90506 3185743.52393 3 -4294740.267 
391 391 24 999 1 1 1 999 999 999 5.91605657404 0 1 0 25 999 999 999 999 0.0 0.0 999 999 0 0 0 1 1 999 999 999 999 999 999 0 999 999 999 999 999 999 999 999 999 999 999 999 999 999 999 999 999 999 -4294732.135 
391 391 25 999 4 5 4 180.0 67.9005507639 56.2391730946 47.9153444173 2 1 1 26 0.2248655521 0.525837465719 -7.97300287115 -0.801577673148 0.0 0.0 999 999 0 0 1 1 5 21.6077456033 -32.8267285827 -67.8557385061 999 999 999 7 -44.4020554314 -1.33813861866 6.92295853989 3.0 46.0730696096 999 999 999 999 999 999 828.833633232 1367.76170491 2459.29574517 5916.10324918 9796.46669805 17416.5941703 3 -4294731.532 
391 391 26 999 4 3 2 168.808302305 0 0 11.3886453424 1 1 0 27 0.76033839379 1.07528086849 999 999 0.0 0.0 999 999 0 0 1 0 3 -38.1659559135 -58.806711365 -69.8863791642 999 999 999 3 -53.1490652865 -114.08587823 -36.8235606477 1.0 23.1806314164 999 999 999 999 999 999 5065.20886983 29852.1845547 49254.8387309 2981.29334254 23951.5981398 3393.189246 2 -4294730.681 
391 391 27 999 5 4 4 157.099449236 78.2911469309 67.0994492361 47.7979244237 1 3 0 28 0.375082556009 0.677527286717 2.74907372383 3.23460621561 0.0 0.0 999 999 0 0 0 2 3 23.6258244493 -35.910491744 -12.0151088639 999 999 999 2 53.7502154649 -57.2678809679 17.6458113664 2.0 61.831348522 999 999 999 999 999 999 80.1967218159 78.8896377074 170.713827095 332.81710112 503.097953683 873.702452789 3 -4294729.688 
391 391 28 999 3 3 3 168.291146931 168.291146931 135.0 20.874969881 1 2 0 29 0.439276268308 0.798783657429 -2.43328966698 4.43849145695 0.0 0.0 999 999 0 0 0 1 3 0.32083260481 -36.4110522279 56.3744527258 999 999 999 1 -2.23390760973 -32.9035225514 58.2704070981 3.0 51.9168769166 999 999 999 999 999 999 3901.29496275 12535.9442487 8394.32318 4153.74572413 10978.8108048 9715.44422754 3 -4294729.464 
391 391 29 999 3 3 2 146.708853069 0 0 22.5616300395 1 1 0 30 0.438076440483 0.619533643487 -3.85517938301 4.64840093472 0.0 0.0 999 999 0 0 0 0 3 -44.6773361814 16.7252829758 -48.0963599169 999 999 999 3 19.3283592779 -125.306663081 19.0001262602 1.0 25.6453864761 999 999 999 999 999 999 712.458442853 2507.10720008 496.991934892 1263.32468631 1199.03779588 7340.57127101 2 -4294729.126 
391 391 30 999 3 3 2 152.092951672 0 0 31.1087538327 1 1 0 31 0.0389232713486 0.0550458182331 -6.81214291032 3.8060546785 0.0 0.0 999 999 0 0 0 0 2 29.7514911558 -44.2045453555 -44.70186224 999 999 999 1 29.7514911558 -44.2045453555 -44.70186224 1.0 33.9940422961 999 999 999 999 999 999 554.359512702 1409.50293088 1524.61377811 554.359512702 1409.50293088 1524.61377811 2 -4294728.394 
391 391 31 999 5 3 3 168.808302305 168.808302305 135.0 50.4766376067 1 1 1 32 0.53641932157 1.06076730256 2.577578815 -3.87132270796 0.0 0.0 999 999 0 0 1 1 4 36.0658041249 -28.2871218221 -58.0843891499 999 999 999 5 24.4593890117 -47.8749275218 84.667016761 2.0 22.7959197174 999 999 999 999 999 999 940.294381539 663.880145673 3207.85713447 12515.5206547 38886.1819121 380017.991619 3 -4294727.456 
391 391 32 999 3 2 1 999 999 999 33.3511375759 1 0 0 33 999 999 999 999 0.0 0.0 999 999 1 0 1 1 2 132.165655907 200.823647124 -364.262184829 999 999 999 1 132.165655907 200.823647124 -364.262184829 1.0 0.916497943004 999 999 999 999 999 999 12725.7419724 28424.6197298 186375.851393 12725.7419724 28424.6197298 186375.851393 2 -4294727.339 
391 391 33 999 3 3 3 168.291146931 168.291146931 112.900550764 28.2414529597 1 1 1 34 0.354833810259 0.708718288755 -2.78426309911 0.99035621867 0.0 0.0 999 999 0 0 0 0 3 2.13931925486 175.944285562 -132.951100043 999 999 999 2 -31.9551831996 13.2631458423 -32.0514174897 2.0 55.3462498748 999 999 999 999 999 999 28039.8839984 41240.5064767 31334.2343066 224031.516849 4399776.31459 1918267.14618 3 -4294726.024 
391 391 34 999 2 3 2 106.666819355 0 0 36.6665903223 1 1 0 35 0.0615355208575 0.0870243681643 -3.51466672288 -4.07523664067 0.0 0.0 999 999 0 0 0 0 2 -55.4224538019 46.8048840101 -0.0509502094495 999 999 999 1 -55.4224538019 46.8048840101 -0.0509502094495 1.0 49.2616351176 999 999 999 999 999 999 598.175901254 411.688966309 1418.99958375 598.175901254 411.688966309 1418.99958375 2 -4294725.976 
391 391 35 999 2 2 1 999 999 999 45.0622779967 0 1 0 36 999 999 999 999 0.0 0.0 999 999 0 0 1 0 2 82.6616692033 -81.8924037896 -15.8854981445 999 999 999 1 82.6616692033 -81.8924037896 -15.8854981445 1.0 5.44584912198 999 999 999 999 999 999 2608.5651985 2588.42233734 1198.43295758 2608.5651985 2588.42233734 1198.43295758 2 -4294725.829 
391 391 36 999 2 3 2 157.051973836 0 0 50.6812165868 1 1 0 37 0.383890043565 0.54290250607 9.21037211763 -11.2023529919 0.0 0.0 999 999 0 0 1 0 2 -4.70930164623 -20.7739028405 60.612925997 999 999 999 1 -4.70930164623 -20.7739028405 60.612925997 1.0 34.4545566211 999 999 999 999 999 999 762.619022277 643.308680805 974.024835729 762.619022277 643.308680805 974.024835729 2 -4294725.802 
391 391 37 999 4 3 3 180.0 180.0 157.099449236 35.6490227314 2 1 0 38 0.258358441935 0.365374012538 3.41150274387 -9.53247661714 0.0 0.0 999 999 0 0 0 1 3 -49.8283594296 61.6020279444 2.78875059219 999 999 999 1 -48.2691795315 88.3885799465 -10.2175172254 3.0 32.2400134533 999 999 999 999 999 999 4037.79235931 11509.9607826 16554.411559 3860.58888573 10835.1943083 15433.3435071 3 -4294725.773 
391 391 38 999 0 0 0 999 999 999 999.0 999 999 999 39 999 999 999 999 0.0 0.0 999 999 2 2 1 0 999 999 999 999 999 999 999 999 999 999 999 999 999 999 999 999 999 999 999 999 999 999 999 999 999 999 -4294725.715 
391 391 39 999 2 2 2 123.808302305 0 0 56.1113546576 1 0 1 40 0.378875093329 0.535810295432 -4.10751687515 -4.85256354864 0.0 0.0 999 999 2 0 1 1 2 8.19879506007 -58.8614654432 -71.2552771986 999 999 999 1 8.19879506007 -58.8614654432 -71.2552771986 1.0 82.512519029 999 999 999 999 999 999 1559.80629191 486.320697181 3773.40853651 1559.80629191 486.320697181 3773.40853651 2 -4294725.677 
391 391 40 999 3 3 3 135.0 135.0 101.708853069 28.069067835 1 2 0 41 0.348976002666 0.62503975864 2.93420769978 -5.47795505618 0.0 0.0 999 999 0 0 2 0 3 42.8067068663 -11.3413548279 -57.7535522422 999 999 999 3 47.1350291322 -5.3240004697 -47.0709522026 1.0 146.074462187 999 999 999 999 999 999 266.39516802 844.233781151 964.411468335 306.19847119 325.587973188 708.124838243 2 -4294725.66 
