369 369 0 -0.443613115427 0 0 0 999 999 999 999.0 999 999 999 1 999 999 999 999 -35.12 -29.04 0 0.0 0 0 0 0 999 999 999 999 999 999 999 999 999 999 999 999 999 999 999 999 999 999 999 999 999 999 999 999 999 -4294961.997 
369 369 1 187.824925436 0 0 0 999 999 999 999.0 999 999 999 2 999 999 999 999 13.1270354708 13.1287915838 1 999 2 0 1 0 999 999 999 999 999 999 999 999 999 999 999 999 999 999 999 999 999 999 999 999 999 999 999 999 999 -4294961.976 
369 369 2 0.877397256057 2 2 1 999 999 999 42.22324404 0 1 0 3 999 999 999 999 43.8177854569 -9.28211017642 1 999 0 0 1 0 2 66.3588819131 -143.304511074 160.557698177 999 999 999 1 66.3588819131 -143.304511074 160.557698177 1.0 206.191909192 66.3588819131 -143.304511074 160.567698177 999 999 999 133745.438422 305532.897573 166395.511094 133745.438422 305532.897573 166395.511094 -4294955.987 
369 369 3 0.997567585993 1 1 1 999 999 999 36.1151067504 0 1 0 4 999 999 999 999 -40.8360820623 18.5674366684 1 999 0 0 0 0 1 999 999 999 999 999 999 0 999 999 999 999 999 999 999 999 999 999 999 999 999 999 999 999 999 -4294946.579 
369 369 4 0.620549044675 0 0 0 999 999 999 999.0 999 999 999 5 999 999 999 999 -7.39371616033 11.4778891657 1 999 2 0 0 2 999 999 999 999 999 999 999 999 999 999 999 999 999 999 999 999 999 999 999 999 999 999 999 999 999 -4294938.685 
369 369 5 9.3316320547 0 0 0 999 999 999 999.0 999 999 999 6 999 999 999 999 -19.8405055648 -29.9246204674 1 999 0 0 2 1 999 999 999 999 999 999 999 999 999 999 999 999 999 999 999 999 999 999 999 999 999 999 999 999 999 -4294923.884 
369 369 6 1.02688159426 1 1 0 999 999 999 999.0 999 999 999 7 999 999 999 999 47.28 -16.88 0 0.0 0 0 1 0 999 999 999 999 999 999 999 999 999 999 999 999 999 999 999 999 999 999 999 999 999 999 999 999 999 -4294915.243 
369 369 7 9.67027191214 2 2 2 173.554565189 0 0 3.22271740534 1 1 0 8 0.532419037569 0.752954223796 999 999 27.1521948375 26.0063052055 1 999 0 0 0 0 2 10.2696551363 364.885431953 378.690519084 999 999 999 1 10.2696551363 364.885431953 378.690519084 1.0 84.9248794446 10.2696551363 364.885431953 378.700519084 999 999 999 73816.9889541 4380727.49115 5377951.8465 73816.9889541 4380727.49115 5377951.8465 -4294908.283 
369 369 8 18.7230642313 3 3 3 166.914601759 166.914601759 157.12680785 9.48486814147 1 2 0 9 0.410024582304 0.5798623252 -4.78958318471 24.776673151 -1.6399413755 27.1958252174 1 999 0 0 1 0 3 -13.6558397504 -27.5301775595 94.7343468844 999 999 999 3 -37.3141969672 -29.3429245513 135.535299819 1.0 90.4374564837 -37.3841969672 -29.3162578846 135.561966486 999 999 999 1363.39202923 7045.99069928 14256.5494812 5755.44836644 16603.8626325 35941.5726539 -4294903.803 
369 369 9 0.514898523516 2 2 0 999 999 999 999.0 999 999 999 10 999 999 999 999 -4.72 -4.72 0 0.0 0 0 0 0 2 3.09902217966 -29.9394521388 -46.0496904822 999 999 999 1 3.09902217966 -29.9394521388 -46.0496904822 1.0 0.152672026174 3.09902217966 -29.9394521388 -46.0396904822 999 999 999 9027.90674856 174132.221597 33438.8167019 9027.90674856 174132.221597 33438.8167019 -4294902.014 
369 369 10 6.8571540253 3 4 2 171.035037604 0 0 7.53135238564 1 1 0 11 0.0890265425009 0.125902543816 999 999 24.3511591064 43.8714358961 1 999 0 0 1 4 3 6.70393874696 47.6082696124 -112.646410364 999 999 999 3 -8.19375820551 90.4779685999 -74.3728300331 1.0 68.494255805 -8.21375820551 90.4879685999 -74.3628300331 999 999 999 318.146002415 1878.38368778 6681.48981111 775.123172343 4497.25634836 18113.7963248 -4294893.43 
369 369 11 1.44814625576 0 0 0 999 999 999 999.0 999 999 999 12 999 999 999 999 -31.0564984867 -20.4920058469 1 999 2 2 0 0 999 999 999 999 999 999 999 999 999 999 999 999 999 999 999 999 999 999 999 999 999 999 999 999 999 -4294893.228 
369 369 12 0.836373228718 1 1 1 999 999 999 42.3814182956 0 1 0 13 999 999 999 999 -3.18753608592 34.1335788609 1 999 1 1 0 0 1 999 999 999 999 999 999 0 999 999 999 999 999 999 999 999 999 999 999 999 999 999 999 999 999 -4294889.269 
369 369 13 2.17729344583 1 1 0 999 999 999 999.0 999 999 999 14 999 999 999 999 -16.88 -29.04 0 0.0 0 0 2 1 1 999 999 999 999 999 999 0 999 999 999 999 999 999 999 999 999 999 999 999 999 999 999 999 999 -4294881.844 
369 369 14 9.6633026989 2 2 2 172.497294884 0 0 28.8281721829 1 1 0 15 0.573273006181 0.810730460284 999 999 8.4535426121 -39.8827654161 2 79.3452856466 0 0 0 0 2 -37.1741055411 70.5355229213 -5.42110352931 999 999 999 1 -37.1741055411 70.5355229213 -5.42110352931 1.0 1.48127838304 -37.1474388744 70.562189588 -5.39443686264 999 999 999 4137.07077385 3860.9387845 24127.6089795 4137.07077385 3860.9387845 24127.6089795 -4294881.488 
369 369 15 4.08899024531 1 1 1 999 999 999 34.504777113 0 1 0 16 999 999 999 999 -0.608473145717 -35.0997462771 1 999 0 0 0 0 1 999 999 999 999 999 999 0 999 999 999 999 999 999 999 999 999 999 999 999 999 999 999 999 999 -4294881.229 
369 369 16 3.97598296283 0 0 0 999 999 999 999.0 999 999 999 17 999 999 999 999 -0.239024952317 -25.9300526825 1 999 1 1 0 0 999 999 999 999 999 999 999 999 999 999 999 999 999 999 999 999 999 999 999 999 999 999 999 999 999 -4294872.428 
369 369 17 6.92712734132 3 3 3 177.397750147 177.397750147 138.454998343 41.4905238976 1 2 0 18 0.671202664997 1.18919582238 31.3040142854 -2.41368798778 32.2403689651 3.0725185582 1 999 0 0 0 0 3 33.6810337341 -39.1295233115 -27.9082419327 999 999 999 1 33.07174126 -41.7085126819 -27.0882095169 3.0 40.1278939907 33.00174126 -41.6818460153 -27.0615428503 999 999 999 13561.1721416 21251.5893638 29319.3211054 13561.1721416 21251.5893638 29319.3211054 -4294869.319 
369 369 18 29.6947921607 0 0 0 999 999 999 999.0 999 999 999 19 999 999 999 999 35.3380686924 13.6350356477 1 999 3 1 1 1 1 999 999 999 999 999 999 0 999 999 999 999 999 999 999 999 999 999 999 999 999 999 999 999 999 -4294851.126 
369 369 19 10.5607369893 2 2 2 178.550686778 0 0 17.2052152098 1 1 0 20 0.604682951483 0.855150830923 30.796043662 26.4470210688 34.1135371118 11.8268492396 1 999 0 0 0 0 2 -2.50346522262 105.789306719 25.8947985663 999 999 999 1 -2.50346522262 105.789306719 25.8947985663 1.0 5.54081611743 -2.49346522262 105.769306719 25.9047985663 999 999 999 5056.97570902 7731.81085263 27030.2603731 5056.97570902 7731.81085263 27030.2603731 -4294847.09 
369 369 20 6.36758159072 2 2 2 169.092684398 0 0 5.45365780085 1 1 0 21 0.424485973184 0.600313820313 1.6165615468 29.7140620571 1.78457054987 33.1111606381 1 999 0 0 0 0 1 999 999 999 999 999 999 0 999 999 999 999 999 999 999 999 999 999 999 999 999 999 999 999 999 -4294838.046 
369 369 21 5.53551905466 2 2 2 175.728612487 0 0 6.00288740795 1 1 0 22 0.358488762697 0.506979670164 999 999 29.6801564718 -7.6853118236 1 999 0 0 0 0 2 7.46416415513 48.4873637596 46.063862796 999 999 999 1 7.46416415513 48.4873637596 46.063862796 1.0 43.8797279102 7.39416415513 48.5140304263 46.0905294626 999 999 999 1722.15018542 4361.84971992 13744.2494821 1722.15018542 4361.84971992 13744.2494821 -4294817.487 
369 369 22 5.55360468661 1 2 1 999 999 999 3.4994088506 0 1 0 23 999 999 999 999 -26.7746772564 -36.4613287934 1 999 0 0 0 1 1 999 999 999 999 999 999 0 999 999 999 999 999 999 999 999 999 999 999 999 999 999 999 999 999 -4294811.575 
369 369 23 1.99723411866 1 1 1 999 999 999 50.5979885466 0 1 0 24 999 999 999 999 19.024783403 16.3911709378 1 999 2 0 0 1 1 999 999 999 999 999 999 0 999 999 999 999 999 999 999 999 999 999 999 999 999 999 999 999 999 -4294811.263 
369 369 24 4.413101208 0 0 0 999 999 999 999.0 999 999 999 25 999 999 999 999 24.3908640738 -13.613385367 1 999 1 0 0 1 999 999 999 999 999 999 999 999 999 999 999 999 999 999 999 999 999 999 999 999 999 999 999 999 999 -4294783.443 
369 369 25 2.50547095104 1 2 1 999 999 999 46.4382988837 0 1 0 26 999 999 999 999 20.0162873684 24.0501760642 1 999 0 0 1 0 1 999 999 999 999 999 999 0 999 999 999 999 999 999 999 999 999 999 999 999 999 999 999 999 999 -4294782.149 
