437 437 0 24.6245230511 5 5 4 131.923808858 123.784030248 83.0013246257 51.5743158354 1 2 1 1 0.709965222833 1.33726158394 5.5695957323 24.4792113138 5.85786317957 23.9779532076 1 999 0 0 0 0 4 16.0636187978 -14.6198687425 21.0459194531 999 999 999 6 56.8120736472 -76.7145316582 107.366347143 1.0 122.102557866 56.8387403139 -76.7845316582 107.393013809 999 999 999 2320.06687227 1959.1138847 4548.93228105 1703.27701716 973.742358616 1778.77580138 -4294961.311 
437 437 1 20.5975933002 5 5 5 141.47685701 100.248439995 51.5644203759 28.2202506372 2 3 0 2 0.252574417095 0.604674898145 -26.2136167225 16.2810005232 -26.3759946599 16.6773172951 1 999 0 0 0 0 5 -15.1612676301 -43.492015695 -69.5093467229 999 999 999 7 -13.5733632528 -28.0496122108 -94.5193178526 4.0 35.7300803662 -13.5466965861 -28.0229455441 -94.5893178526 999 999 999 650.227251931 817.702616445 2795.50911432 2721.49524526 16320.2652927 15234.8971383 -4294961.23 
437 437 2 23.7923446955 1 1 1 999 999 999 46.8137781669 0 1 0 3 999 999 999 999 -12.6661623291 -19.5885808835 1 999 0 0 0 0 1 999 999 999 999 999 999 0 999 999 999 999 999 999 999 999 999 999 999 999 999 999 999 999 999 -4294961.198 
437 437 3 98.2035993322 2 2 2 150.853297875 0 0 61.652452274 0 1 1 4 0.106933498327 0.151226803605 -9.58265884156 -19.5452031394 -11.1567114154 -22.0526759966 1 999 0 0 2 0 2 42.9749830727 -23.482280843 80.1340416155 999 999 999 1 42.9749830727 -23.482280843 80.1340416155 1.0 45.6960232556 42.9049830727 -23.4556141763 80.1607082822 999 999 999 941.975514065 1795.30579663 1181.77461873 941.975514065 1795.30579663 1181.77461873 -4294961.18 
437 437 4 29.7542043189 4 4 2 43.5900680129 0 0 55.0705775392 0 1 1 5 0.594600555401 0.840892169643 13.6077627098 16.9290999817 7.7631453305 20.9397094896 1 999 0 0 2 0 3 50.553225272 -43.5068303138 -105.044444804 999 999 999 2 21.0417687341 -12.7041284919 -86.8744144187 2.0 45.0940207044 20.9717687341 -12.6774618252 -86.8477477521 999 999 999 2623.59043095 768.595523294 1404.0654198 2263.12809524 988.706029631 1736.68178383 -4294961.165 
437 437 5 85.100389802 4 4 4 148.76444101 71.006106076 66.8336132004 55.9469861504 2 0 2 6 0.267615915238 0.502322092754 4.86128408238 -36.4570961969 5.75987607723 -34.3238861781 1 999 0 0 0 1 4 -25.0925802705 -54.880981771 28.988050123 999 999 999 1 -14.8524058822 -47.6929187239 -6.92641841075 6.0 66.8403322202 -14.8257392155 -47.7629187239 -6.89975174408 999 999 999 36393.3832593 35572.1521667 22346.2936974 36393.3832593 35572.1521667 22346.2936974 -4294961.146 
437 437 6 -0.0268351475867 2 2 2 137.666437066 0 0 21.1667814669 1 1 0 7 0.297513796655 0.420748046223 38.4483230464 -19.9958191908 37.8918488957 -15.4095660739 1 999 0 0 0 0 1 999 999 999 999 999 999 0 999 999 999 999 999 999 999 999 999 999 999 999 999 999 999 999 999 -4294961.133 
437 437 7 28.2760595166 2 2 2 178.31688736 0 0 89.15844368 0 0 2 8 0.0125881178369 0.0178022869697 -57.8898037094 -13.6460616513 -33.0153348382 -15.2823176448 1 999 0 0 1 0 2 -29.7831364803 0.127222959414 36.5556886617 999 999 999 1 -29.7831364803 0.127222959414 36.5556886617 1.0 7.49687575431 -29.7564698137 0.153889626081 36.4856886617 999 999 999 14813.9979836 635.449199781 7775.76527225 14813.9979836 635.449199781 7775.76527225 -4294961.116 
437 437 8 0.150541001709 1 1 1 999 999 999 52.7801767072 0 1 0 9 999 999 999 999 -29.04 -29.04 0 0.0 1 0 0 1 1 999 999 999 999 999 999 0 999 999 999 999 999 999 999 999 999 999 999 999 999 999 999 999 999 -4294961.102 
437 437 9 1.97598261631 3 3 3 147.351372746 147.351372746 88.4581761582 54.1162135996 1 0 2 10 0.155484756501 0.31087421816 1.64926676608 -31.8158903917 1.75701072727 -32.8281196904 1 999 0 0 0 0 3 -15.4466674983 -44.9386612211 -71.1716002871 999 999 999 3 -41.7594639119 -112.476771741 -82.1378083238 1.0 128.678674321 -41.7327972453 -112.546771741 -82.1111416571 999 999 999 7471.06012251 62829.6734597 35476.7695913 7907.66562987 21756.4060766 16141.7396966 -4294961.083 
437 437 10 24.5814220343 5 4 4 151.088882548 142.281740626 45.2704937753 66.2296691447 1 1 2 11 0.232034981278 0.464063132024 -6.42980509462 -22.4873714716 -7.93206251004 -24.2214776713 1 999 1 0 1 1 4 -84.7452964596 23.7029189665 25.675086588 999 999 999 2 -133.431875296 19.8373168295 15.2010923562 5.0 39.1105142819 -133.501875296 19.8639834962 15.2277590229 999 999 999 2335.67602246 958.586075195 3612.69163045 2404.12979849 1015.62745216 3177.89843161 -4294961.064 
437 437 11 34.4932959957 2 3 2 105.342359574 0 0 37.328820213 1 1 0 12 0.369058708527 0.521927830911 -1.59941602218 -21.1556411746 -2.15555730391 -22.4557856338 1 999 0 0 3 1 2 -1.08068099576 -6.28925284332 6.53121610371 999 999 999 1 -1.08068099576 -6.28925284332 6.53121610371 1.0 8.42519198531 -1.05401432909 -6.26258617665 6.46121610371 999 999 999 788.335525699 805.747342879 1305.87703165 788.335525699 805.747342879 1305.87703165 -4294961.051 
437 437 12 80.6107840192 0 0 0 999 999 999 999.0 999 999 999 13 999 999 999 999 -15.7926938232 -19.4591245597 1 999 2 5 0 0 999 999 999 999 999 999 999 999 999 999 999 999 999 999 999 999 999 999 999 999 999 999 999 999 999 -4294961.015 
437 437 13 35.6964530903 4 4 4 142.108299819 96.3930042003 95.2112231413 31.2888384105 2 2 0 14 0.369077593229 0.706667353018 -21.0128573715 -25.0320494116 -20.5594463739 -30.863759328 1 999 0 0 1 0 4 27.2454864614 -41.4227475236 21.2130811064 999 999 999 4 22.6340208783 -7.66558571382 45.1058052331 3.0 58.6182061564 22.6440208783 -7.68558571382 45.1158052331 999 999 999 790.701156173 1482.14988786 1107.9624501 803.960695419 5758.97230132 2170.83655849 -4294961.003 
437 437 14 69.1992055138 4 4 3 89.9306430283 89.9306430283 63.0669460514 40.6609624502 0 2 1 15 0.0488742522838 0.0691186304306 -3.68259478154 -37.3830942488 -5.12542554473 -32.4609100103 1 999 0 0 0 1 4 -40.2133180848 -47.105208963 -23.574875602 999 999 999 4 -69.223769739 -60.2732148446 -83.6936206833 2.0 102.947755541 -69.293769739 -60.2465481779 -83.6669540166 999 999 999 98.7673757914 83.7606201744 336.885145533 4481.15643579 3771.96029488 12128.8206029 -4294960.988 
437 437 15 68.9316060347 7 5 4 152.585247811 113.373669646 49.6469609086 55.1208770456 0 2 2 16 0.180656649501 0.421066458634 7.87625627893 -23.9905625337 6.30135398128 -24.3279649054 1 999 0 0 0 0 5 41.0809830466 -3.80815686617 24.6482821684 999 999 999 8 107.655177035 0.786161958178 13.2807472846 3.0 51.3387378991 107.635177035 0.796161958178 13.2907472846 999 999 999 1475.27174582 233.62933945 1730.92540201 80985.2977087 5987.68165983 97888.0078833 -4294960.975 
437 437 16 17.9537269904 3 3 3 159.810259903 159.810259903 80.2357711565 46.7496590442 2 1 0 17 0.0676246188155 0.11727517733 -2.68691482898 2.55595339946 -2.95272186583 3.0709109888 1 999 0 0 2 1 3 -12.3959908092 -22.4202669508 29.9950882242 999 999 999 1 -19.385107597 -22.5223259688 37.6458983235 3.0 45.6945137853 -19.3584409303 -22.5923259688 37.6725649901 999 999 999 1601.42597186 1045.52795018 2776.6650434 1601.42597186 1045.52795018 2776.6650434 -4294960.963 
437 437 17 27.1527594674 4 3 3 159.164393541 159.164393541 123.882848698 33.7523338913 1 2 0 18 0.266538928411 0.468665002457 -24.6284052876 -30.0222743439 -24.0401650247 -32.7026779477 1 999 0 0 0 0 3 -37.5034856525 15.9890362854 -5.82663991658 999 999 999 2 -54.2900702236 52.6141792065 -11.2092833655 2.0 70.7548496083 -54.3100702236 52.6241792065 -11.1992833655 999 999 999 365.120762842 1493.37388151 2605.79878415 671.409282323 1433.98077943 1850.66882666 -4294960.949 
437 437 18 106.899409071 0 0 0 999 999 999 999.0 999 999 999 19 999 999 999 999 15.6414189542 13.7440514243 1 999 4 3 0 0 999 999 999 999 999 999 999 999 999 999 999 999 999 999 999 999 999 999 999 999 999 999 999 999 999 -4294960.935 
437 437 19 27.6140860304 3 3 3 159.281339706 159.281339706 141.623530612 25.6031143344 2 1 0 20 0.219671476891 0.438388963526 6.24890473873 -24.7898776842 6.99329339321 -27.6826250503 1 999 0 0 1 1 3 -13.7631048344 16.7977058473 -83.7119728746 999 999 999 2 -5.7694262981 23.6392167832 -124.719983441 2.0 46.7031503033 -5.74275963143 23.5692167832 -124.693316774 999 999 999 504.303747996 1133.86767944 607.477063655 2393.96179048 4485.8880785 9825.9969199 -4294960.922 
437 437 20 39.0503373105 0 0 0 999 999 999 999.0 999 999 999 21 999 999 999 999 -26.7801935986 25.9103408838 1 999 3 0 0 4 999 999 999 999 999 999 999 999 999 999 999 999 999 999 999 999 999 999 999 999 999 999 999 999 999 -4294960.91 
437 437 21 78.6826851186 0 0 0 999 999 999 999.0 999 999 999 22 999 999 999 999 5.13579328615 -20.6994141739 1 999 4 2 0 2 999 999 999 999 999 999 999 999 999 999 999 999 999 999 999 999 999 999 999 999 999 999 999 999 999 -4294960.898 
437 437 22 23.3339855463 4 3 3 178.970859983 178.970859983 153.134101985 31.8114163834 2 1 0 23 0.06452535489 0.0912526320024 28.5549345916 -26.9452459421 27.94101366 -26.7504279049 1 999 0 0 0 1 3 75.8079843653 -81.4170658624 -19.1056388132 999 999 999 2 53.0539028695 -65.2000918015 -15.1312490458 2.0 34.7802708774 53.0639028695 -65.1900918015 -15.1512490458 999 999 999 1004.60813183 2715.48208557 1701.37210448 11949.532836 16838.1580739 5933.64358525 -4294960.885 
437 437 23 12.338915254 1 1 1 999 999 999 72.1598972874 1 0 0 24 999 999 999 999 -7.72893248699 -40.1293612259 1 999 1 0 0 0 1 999 999 999 999 999 999 0 999 999 999 999 999 999 999 999 999 999 999 999 999 999 999 999 999 -4294960.868 
437 437 24 2.42219922564 2 2 1 999 999 999 29.6991129708 0 1 0 25 999 999 999 999 28.3538774654 37.9204405861 1 999 0 0 0 3 2 -15.1275036098 -56.482548745 105.565160109 999 999 999 1 -15.1275036098 -56.482548745 105.565160109 1.0 26.7389428685 -15.1008369432 -56.4558820784 105.591826776 999 999 999 934.664855858 1601.18039647 510.554764039 934.664855858 1601.18039647 510.554764039 -4294960.856 
