508 508 0 999 0 0 0 999 999 999 999.0 999 999 999 1 999 999 999 999 0.0 0.0 999 999 0 0 0 0 999 999 999 999 999 999 999 999 999 999 999 999 999 999 999 999 999 999 999 999 999 999 999 999 999 999 -4294955.474 
508 508 1 999 0 0 0 999 999 999 999.0 999 999 999 2 999 999 999 999 0.0 0.0 999 999 1 3 1 1 999 999 999 999 999 999 999 999 999 999 999 999 999 999 999 999 999 999 999 999 999 999 999 999 999 999 -4294955.453 
508 508 2 999 2 1 1 999 999 999 28.0155058101 0 1 0 3 999 999 999 999 0.0 0.0 999 999 0 0 1 1 2 108.374070985 -227.083611891 367.228764825 999 999 999 1 108.374070985 -227.083611891 367.228764825 1.0 25.3128189424 999 999 999 999 999 999 33739.0763897 73845.8017342 392998.824711 33739.0763897 73845.8017342 392998.824711 2 -4294941.037 
508 508 3 999 1 1 1 999 999 999 39.207203505 1 0 0 4 999 999 999 999 0.0 0.0 999 999 0 0 0 1 1 999 999 999 999 999 999 0 999 999 999 999 999 999 999 999 999 999 999 999 999 999 999 999 999 999 -4294936.475 
508 508 4 999 3 2 2 157.900550764 0 0 16.9657811921 1 1 0 5 0.330538799623 0.467452453317 1.58037740595 -15.3588201816 0.0 0.0 999 999 0 0 0 3 3 -28.2074149522 -31.3588303925 -8.21774731878 999 999 999 3 -76.7676289203 42.9136212492 42.6733941331 1.0 145.508942049 999 999 999 999 999 999 2437.87281916 8548.50140154 3378.10238511 504.657058447 1030.84419924 791.040098114 2 -4294898.043 
508 508 5 999 2 2 2 168.808302305 0 0 33.6113546576 1 1 0 6 0.454705530159 0.643050727636 0.542891653089 -0.740791824125 0.0 0.0 999 999 0 0 0 0 2 33.52112929 -50.6962769718 17.4904228143 999 999 999 1 33.52112929 -50.6962769718 17.4904228143 1.0 10.8629334828 999 999 999 999 999 999 14731.1264789 36297.7035152 92175.9165606 14731.1264789 36297.7035152 92175.9165606 2 -4294897.342 
508 508 6 999 2 3 2 22.9480261637 0 0 50.6812165868 2 0 0 7 0.102082546266 0.144366521411 8.98639013156 -11.0870641981 0.0 0.0 999 999 0 0 5 1 3 -3.98715689989 -30.004819949 485.617675438 999 999 999 2 -61.0279997371 7.88104395019 216.369226497 2.0 19.3340662728 999 999 999 999 999 999 1476.29169945 737.288566538 8029.68939909 12275.569702 12569.6815281 300721.441729 3 -4294870.883 
508 508 7 999 2 2 2 168.291146931 0 0 45.0616300395 1 1 0 8 0.641889795019 0.907769253664 -0.149165657392 0.107223184213 0.0 0.0 999 999 0 0 0 0 1 999 999 999 999 999 999 0 999 999 999 999 999 999 999 999 999 999 999 999 999 999 999 999 999 999 -4294858.821 
508 508 8 999 2 2 2 157.948026164 0 0 28.1812165868 1 1 0 9 0.493185998397 0.697470327706 -9.72951577611 11.8465409586 0.0 0.0 999 999 0 0 0 0 2 -181.675263423 185.847278943 333.144565667 999 999 999 1 -181.675263423 185.847278943 333.144565667 1.0 46.4530362934 999 999 999 999 999 999 647003.062976 875228.447713 3915031.41819 647003.062976 875228.447713 3915031.41819 2 -4294856.191 
508 508 9 999 2 2 2 169.139723858 0 0 22.5853677394 1 1 0 10 0.363344344667 0.513846500039 0.027519231088 -0.337745840489 0.0 0.0 999 999 0 0 0 0 2 128.186931495 -313.990987076 -129.741338788 999 999 999 1 128.186931495 -313.990987076 -129.741338788 1.0 84.8043428612 999 999 999 999 999 999 86732.3115077 581901.757748 136499.640385 86732.3115077 581901.757748 136499.640385 2 -4294853.632 
508 508 10 999 0 0 0 999 999 999 999.0 999 999 999 11 999 999 999 999 0.0 0.0 999 999 2 1 0 1 999 999 999 999 999 999 999 999 999 999 999 999 999 999 999 999 999 999 999 999 999 999 999 999 999 999 -4294836.888 
508 508 11 999 2 2 2 169.139723858 0 0 22.5853677394 1 1 0 12 0.427765875389 0.604952302496 999 999 0.0 0.0 999 999 0 0 0 0 1 999 999 999 999 999 999 0 999 999 999 999 999 999 999 999 999 999 999 999 999 999 999 999 999 999 -4294821.631 
508 508 12 999 0 0 0 999 999 999 999.0 999 999 999 13 999 999 999 999 0.0 0.0 999 999 13 20 1 1 1 999 999 999 999 999 999 0 999 999 999 999 999 999 999 999 999 999 999 999 999 999 999 999 999 999 -4294804.715 
508 508 13 999 0 0 0 999 999 999 999.0 999 999 999 14 999 999 999 999 0.0 0.0 999 999 2 1 0 1 999 999 999 999 999 999 999 999 999 999 999 999 999 999 999 999 999 999 999 999 999 999 999 999 999 999 -4294795.106 
508 508 14 999 0 0 0 999 999 999 999.0 999 999 999 15 999 999 999 999 0.0 0.0 999 999 2 2 0 0 999 999 999 999 999 999 999 999 999 999 999 999 999 999 999 999 999 999 999 999 999 999 999 999 999 999 -4294788.358 
