408 408 0 999 0 0 0 999 999 999 999.0 999 999 999 1 999 999 999 999 0.0 0.0 999 999 0 0 0 0 999 999 999 999 999 999 999 999 999 999 999 999 999 999 999 999 999 999 999 999 999 999 999 999 999 999 -4294947.413 
408 408 1 999 0 0 0 999 999 999 999.0 999 999 999 2 999 999 999 999 0.0 0.0 999 999 3 2 0 0 999 999 999 999 999 999 999 999 999 999 999 999 999 999 999 999 999 999 999 999 999 999 999 999 999 999 -4294947.391 
408 408 2 999 0 0 0 999 999 999 999.0 999 999 999 3 999 999 999 999 0.0 0.0 999 999 1 1 0 2 999 999 999 999 999 999 999 999 999 999 999 999 999 999 999 999 999 999 999 999 999 999 999 999 999 999 -4294942.229 
408 408 3 999 0 0 0 999 999 999 999.0 999 999 999 4 999 999 999 999 0.0 0.0 999 999 2 2 0 0 999 999 999 999 999 999 999 999 999 999 999 999 999 999 999 999 999 999 999 999 999 999 999 999 999 999 -4294925.196 
408 408 4 999 2 3 2 162.58450849 0 0 47.7916891808 1 1 0 5 0.143537381889 0.202992512175 -4.39932722872 -5.43323778334 0.0 0.0 999 999 0 0 0 0 2 64.3028047327 63.9485812837 -22.3637941332 999 999 999 1 64.3028047327 63.9485812837 -22.3637941332 1.0 19.9747158986 999 999 999 999 999 999 3603.66340197 5848.03389683 655.316261673 3603.66340197 5848.03389683 655.316261673 2 -4294906.359 
408 408 5 999 3 3 2 174.567370119 0 0 25.2991908697 1 1 0 6 0.726581770162 1.02754179354 999 999 0.0 0.0 999 999 0 0 0 0 2 40.5630380269 -115.975077591 -89.2794689276 999 999 999 1 40.5630380269 -115.975077591 -89.2794689276 1.0 23.9145312548 999 999 999 999 999 999 1120.63886159 1753.15785176 2758.40797854 1120.63886159 1753.15785176 2758.40797854 2 -4294897.143 
408 408 6 999 2 3 2 163.633356614 0 0 19.8321841171 1 1 0 7 0.677073213851 0.957526121747 0.462027229882 -13.2930866474 0.0 0.0 999 999 0 0 0 0 2 -34.9629610177 -12.9814345286 -164.52908824 999 999 999 1 -34.9629610177 -12.9814345286 -164.52908824 1.0 0.0956523874005 999 999 999 999 999 999 518.235788446 625.850184582 2044.21046857 518.235788446 625.850184582 2044.21046857 2 -4294897.068 
408 408 7 999 4 3 3 180.0 180.0 146.191697695 20.6079360384 1 2 0 8 0.471630653522 0.923996268544 -5.12625011791 1.74833470682 0.0 0.0 999 999 0 0 1 0 3 49.3861884776 -106.103643652 -159.941783898 999 999 999 3 26.0859049023 -99.6792965141 -78.6425413158 1.0 34.0099341893 999 999 999 999 999 999 1781.46180888 616.579761123 5199.40519511 13474.9770026 13673.3707644 63117.3194632 2 -4294891.847 
408 408 8 999 0 0 0 999 999 999 999.0 999 999 999 9 999 999 999 999 0.0 0.0 999 999 2 1 0 1 999 999 999 999 999 999 999 999 999 999 999 999 999 999 999 999 999 999 999 999 999 999 999 999 999 999 -4294877.271 
408 408 9 999 1 1 1 999 999 999 27.8447703314 0 1 0 10 999 999 999 999 0.0 0.0 999 999 0 0 0 0 1 999 999 999 999 999 999 0 999 999 999 999 999 999 999 999 999 999 999 999 999 999 999 999 999 999 -4294858.473 
408 408 10 999 3 2 2 146.239173095 0 0 16.8804134527 1 1 0 11 0.511320525719 0.723116422192 -4.43655977397 -8.24027767577 0.0 0.0 999 999 0 0 0 0 2 -11.6203179674 178.943834087 -115.36227239 999 999 999 1 -11.6203179674 178.943834087 -115.36227239 1.0 0.743871384838 999 999 999 999 999 999 29853.592842 134225.200516 137982.484646 29853.592842 134225.200516 137982.484646 2 -4294853.764 
408 408 11 999 1 1 1 999 999 999 16.9844941899 0 1 0 12 999 999 999 999 0.0 0.0 999 999 1 0 0 1 1 999 999 999 999 999 999 0 999 999 999 999 999 999 999 999 999 999 999 999 999 999 999 999 999 999 -4294849.026 
408 408 12 999 0 0 0 999 999 999 999.0 999 999 999 13 999 999 999 999 0.0 0.0 999 999 2 2 0 0 999 999 999 999 999 999 999 999 999 999 999 999 999 999 999 999 999 999 999 999 999 999 999 999 999 999 -4294837.73 
408 408 13 999 1 1 1 999 999 999 5.91605657404 1 0 0 14 999 999 999 999 0.0 0.0 999 999 0 0 0 0 1 999 999 999 999 999 999 0 999 999 999 999 999 999 999 999 999 999 999 999 999 999 999 999 999 999 -4294837.263 
408 408 14 999 2 3 1 999 999 999 44.9377220033 0 1 0 15 999 999 999 999 0.0 0.0 999 999 0 0 0 1 2 -55.5166582616 -76.6397662771 -0.807922405105 999 999 999 1 -55.5166582616 -76.6397662771 -0.807922405105 1.0 13.6324554103 999 999 999 999 999 999 251.068663128 162.711066066 856.271878597 251.068663128 162.711066066 856.271878597 2 -4294836.067 
408 408 15 999 3 3 3 135.0 135.0 123.760826905 20.7184098895 1 2 0 16 0.124455126915 0.17600612839 -0.0123854592234 -0.143138871066 0.0 0.0 999 999 0 0 0 0 3 23.6160705655 -23.5455814307 -32.1695612985 999 999 999 3 50.9830093 45.1686517391 79.1933372334 1.0 218.153639871 999 999 999 999 999 999 1874.70919257 22809.7367943 45529.4875459 502.734446918 1136.55291014 3596.13071731 2 -4294824.319 
408 408 16 999 2 2 2 33.8083023052 0 0 56.1113546576 1 0 1 17 2.5446823883 3.59872434547 -17.0271476099 11.3479932624 0.0 0.0 999 999 6 15 4 2 3 -42.3485022985 60.9843947534 -10.9049230357 999 999 999 3 -15.2729260084 52.9910625328 36.8839162262 1.0 105.572542626 999 999 999 999 999 999 8503.08514354 23166.8195191 44374.9000168 2036.00101867 5374.88259585 10362.1925001 2 -4294812.436 
408 408 17 999 12 10 7 79.1397238585 78.2911469309 67.9274775542 41.0687287078 3 3 1 18 0.336495930985 0.930640956806 -4.59089186279 1.04530549507 0.0 0.0 999 999 0 0 1 2 10 11.0744932877 -33.5297723321 7.23306921085 999 999 999 9 -1.56813648012 -12.8804564211 3.35070959943 33.0 70.6929315156 999 999 999 999 999 999 938.4847177 1000.83422903 752.143293168 1552.60341564 2661.25076614 2815.12043365 10 -4294811.739 
408 408 18 999 0 0 0 999 999 999 999.0 999 999 999 19 999 999 999 999 0.0 0.0 999 999 3 2 0 0 999 999 999 999 999 999 999 999 999 999 999 999 999 999 999 999 999 999 999 999 999 999 999 999 999 999 -4294802.403 
408 408 19 999 1 1 1 999 999 999 39.207203505 1 0 0 20 999 999 999 999 0.0 0.0 999 999 0 0 2 3 999 999 999 999 999 999 999 999 999 999 999 999 999 999 999 999 999 999 999 999 999 999 999 999 999 999 -4294793.444 
408 408 20 999 0 0 0 999 999 999 999.0 999 999 999 21 999 999 999 999 0.0 0.0 999 999 2 1 0 1 999 999 999 999 999 999 999 999 999 999 999 999 999 999 999 999 999 999 999 999 999 999 999 999 999 999 -4294793.369 
408 408 21 999 2 2 2 146.708853069 0 0 67.4383699605 1 0 1 22 0.0477117076274 0.0674745440107 -2.38697905842 5.56252464888 0.0 0.0 999 999 0 0 0 0 2 -167.563438277 -35.4444375218 -130.47722561 999 999 999 1 -167.563438277 -35.4444375218 -130.47722561 1.0 45.7398821271 999 999 999 999 999 999 226651.355762 27588.3339483 178411.731655 226651.355762 27588.3339483 178411.731655 2 -4294781.784 
408 408 22 999 0 0 0 999 999 999 999.0 999 999 999 23 999 999 999 999 0.0 0.0 999 999 4 0 0 1 999 999 999 999 999 999 999 999 999 999 999 999 999 999 999 999 999 999 999 999 999 999 999 999 999 999 -4294775.746 
408 408 23 999 1 1 1 999 999 999 28.0155058101 0 1 0 24 999 999 999 999 0.0 0.0 999 999 0 0 1 0 1 999 999 999 999 999 999 0 999 999 999 999 999 999 999 999 999 999 999 999 999 999 999 999 999 999 -4294753.676 
408 408 24 999 0 0 0 999 999 999 999.0 999 999 999 25 999 999 999 999 0.0 0.0 999 999 2 1 0 1 999 999 999 999 999 999 999 999 999 999 999 999 999 999 999 999 999 999 999 999 999 999 999 999 999 999 -4294749.727 
