0
1
42
118
125
135
146
147
162
168
201
243
275
284
293
359
419
420
444
464
467
482
537
538
546
570
668
685
737
750
753
788
798
830
896
906
955
968
991
992
998
1014
1016
1057
1080
1090
1134
1139
1141
1149
1164
1205
1209
1214
1227
1253
1284
1299
1339
1364
1391
1519
