1
2
3
4
5
6
7
8
9
10
11
12
13
14
15
16
17
18
19
20
21
22
23
24
25
26
27
28
29
30
31
32
33
34
35
36
37
38
39
40
41
42
43
44
45
46
47
48
49
50
51
52
53
54
55
56
57
58
59
60
61
62
63
64
65
66
67
68
69
70
71
72
73
74
75
76
77
78
79
80
81
82
83
84
85
86
87
88
89
90
91
92
93
94
95
97
98
100
106
114
115
128
130
133
144
150
154
163
164
175
177
178
180
182
192
201
203
205
207
208
209
222
230
232
236
239
242
244
253
264
265
281
282
286
287
289
292
297
301
305
309
323
324
341
344
359
367
377
378
386
398
408
412
414
425
426
427
433
437
444
448
449
460
464
466
469
475
483
484
486
492
497
499
512
533
534
539
544
555
565
574
575
577
578
580
583
584
590
596
602
604
605
607
611
612
614
616
618
619
620
622
627
631
633
634
638
641
648
650
656
657
661
663
664
666
671
672
675
678
680
683
684
700
704
707
709
710
714
719
727
737
739
746
751
752
760
761
762
763
764
766
771
773
774
780
783
796
797
800
804
808
816
819
822
826
828
844
854
857
858
862
868
877
878
900
903
912
915
917
922
926
934
936
943
951
952
964
968
973
977
983
986
989
996
1005
1006
1007
1008
1013
1023
1027
1033
1034
1042
1051
1057
1061
1062
1065
1073
1082
1083
1085
1088
1090
1092
1097
1099
1102
1103
1104
1115
1120
1123
1134
1140
1143
1144
1149
1164
1169
1177
1180
1183
1184
1196
1200
1212
1213
1214
1216
1219
1222
1227
1238
1244
1251
1256
1260
1271
1274
1282
1284
1290
1294
1300
1303
1304
1306
1307
1329
1334
1337
1339
1341
1345
1348
1349
1350
1351
1352
1353
1354
1355
1356
1357
1358
1359
1360
1361
1362
1363
1365
1366
1367
1368
1369
1370
1371
1372
1373
1373
1375
1376
1377
1378
1379
1380
1381
1382
1383
1384
1385
1386
1387
1388
1389
1390
1391
1392
1393
1394
1395
1396
1397
1398
1399
1400
1401
1402
1403
1404
1405
1406
1407
1408
1409
1410
1411
1412
1413
1414
1415
1416
1417
1418
1419
1420
1421
1422
1423
1424
1425
1426
1427
1428
1429
1430
1431
1432
1433
1434
1435
1436
1437
1438
1439
1440
1441
1442
1443
1444
1445
1446
1447
1448
1449
1450
1451
1452
1453
1454
1455
1456
1457
1458
1459
1460
1461
1462
1463
1464
1465
1466
1467
1468
1469
1470
1471
1472
1473
1474
1475
1476
1477
1478
1479
1480
1481
1482
1483
1485
1486
1487
1488
1489
1490
1491
1492
1493
1494
1495
1496
1497
1498
1499
1500
1501
1502
1503
1504
1505
1506
1507
1508
1509
1510
1511
1512
1513
1514
1515
1516
1517
1518
1519
1520
1521
1522
1523
1524
1525
1526
1527
1528
1529
1530
1531
1532
1533
1534
1535
1536
1537
1538
1539
1540
1541
1542
1543
1544
1545
1546
1547
1548
1549
1550